{
  "blog": {
    "c4p": {
      "backgroundColor": "#3647a5",
      "brief": "GDG DevFest Ukraine was announced, for the sixth year in a row, the conference will bring together 900 developers, managers and...",
      "content": "GDG DevFest Ukraine was announced, for the sixth year in a row, the conference will bring together 900 developers, managers and entrepreneurs on **October 13-14** to Lviv.  This year our team is doing big advancement in the content, we're building an extra stage to accommodate more visitors and provide three fully independent tracks on Android, Web and Google Cloud topics.  Our focus is the content. **We’re looking for speakers like you**, who are ready to rock the stage and deliver the best talk or workshop in the field.  \"I've been to conferences all over the world and what you've created in Lviv is world class. It's easily first league of conferences.\" - Piotr Tuszynski, DevFest '16 Keynote Speaker  <div layout horizontal center-justified> <a href=\"http://bit.ly/df17-c4p\" rel=\"noopener noreferrer\">   <paper-button primary>Submit a proposal</paper-button> </a> </div>  ## Why is it cool to speak at the DevFest?  DevFest Ukraine is not an ordinary tech conference, besides selecting only the best speakers, we help them to succeed in delivering an exceptional quality talk on the stage.  Here are few perks that all our speakers get:  - **Expences covered**. Hotel for 3 nights, travel costs and entrance to exclusive speaker parties are covered for all speakers. - **Professional video recording**. We work with experienced video production companies to create session recording of the best quality. Stage, screen, audio, all is recorded separately and combined later. Check the [session videos from the last year](https://www.youtube.com/watch?v=VOwUnBkqmo4). - **Exposure**. By being a speaker, you are proving your level of expertise to a potential business partners or employers. Your talk will be promoted in our online resources and recording published in YouTube channel with more than 35k views. - **Unique networking**. Being a speaker means you’ll have the unique chance to network with other speakers - the best experts in the industry. - **Coaching**. We're in the same boat, after being selected as a speaker our program committee will help you to deliver the best talk possible. We provide information about the audience, presentation templates, feedback on the slides, all to help you to prepare.  \"It was a best DevFest I ever attended. So professional, so much enthusiasm from the community. You managed to bring the vibe of Google I/O to Ukraine.\" - David Vávra, DevFest '16 Speaker  ## What are we looking for?  We're looking for **experience-based talks**, the information that can not be found in the documentation or easily googled. We're looking for your stories, your struggles, research results and experiences with the frontier tools or technologies. Check the [list of topics](https://docs.google.com/document/d/18eGvBr6wdlXsfiZM4EK6SubfL3G1RWj-ABTBN9pngNg/edit?usp=sharing) we're interested in (it is not full and updated all the time).  ### Format  You can submit as many talks as you want. This year we accept submissions in two formats:   - 40 minutes sessions.   - 2(or 3) hours workshops.  ### Talks that will not pass initial review  - Talks about a specific tool/library/project explaining how it works or how to use it.  - Talks whose focus is pitching a company or project. It’s cool that you mention your company during the presentation, but it shouldn’t be the focus of the talk.  - Proposals that are not in English.  - Recruitment talks to attract talent.  We strongly recommend you check out [speaking.io](http://speaking.io/) website from Zach Holman. It includes good tips and guidelines for speakers.   ## Timeline  **Call for Papers submission deadline is July 1, 2017.** Submission results will be announced by July 16.   Any questions? Email organizers at [devfest@gdg.org.ua](mailto:devfest@gdg.org.ua)  <div layout horizontal center-justified> <a href=\"http://bit.ly/df17-c4p\" rel=\"noopener noreferrer\">   <paper-button primary>Submit a proposal</paper-button> </a> </div>",
      "image": "/images/posts/c4p.jpg",
      "published": "2017-02-12",
      "source": "/data/posts/2017-02-12-c4p.md",
      "title": "We're looking for speakers"
    }
  },
  "gallery": [
    "../images/gallery/04.jpg",
    "../images/gallery/16.jpg",
    "../images/gallery/22.jpg",
    "../images/gallery/42.jpg",
    "../images/gallery/2208.jpg",
    "../images/gallery/2432.jpg",
    "../images/gallery/440.jpg",
    "../images/gallery/08.jpg"
  ],
  "notifications": {
    "config": {
      "icon": "",
      "timezone": "-05:00"
    },
    "messages": {},
    "subscribers": {},
    "test": {},
    "users": {}
  },
  "partners": [
    {
      "logos": [
        {
          "order": 0,
          "logoUrl": "../images/logos/google.svg",
          "name": "Google",
          "url": "https://google.com"
        },
        {
          "order": 1,
          "logoUrl": "../images/logos/4plus1creative.png",
          "name": "4plus1creative",
          "url": "https://4plus1creative.com/"
        },
        {
          "order": 2,
          "logoUrl": "../images/logos/platzi.png",
          "name": "Platzi",
          "url": "https://platzi.com/"
        },
        {
          "order": 3,
          "logoUrl": "../images/logos/ockham.svg",
          "name": "Ockham",
          "url": "https://ockham.education/"
        },
        {
          "order": 4,
          "logoUrl": "../images/logos/ITSM.jpeg",
          "name": "Instituto Técnologico de Misantla",
          "url": "https://misantla.tecnm.mx/"
        },
        {
          "order": 5,
          "logoUrl": "../images/logos/codigofacilito.jpg",
          "name": "códigofacilito",
          "url": "https://codigofacilito.com/"
        },
        {
          "order": 6,
          "logoUrl": "../images/logos/academikus.png",
          "name": "AcademikUS",
          "url": ""
        },
        {
          "order": 7,
          "logoUrl": "../images/logos/horuss.png",
          "name": "Horuss Solutions",
          "url": "https://www.horuss.com.mx/"
        },
        {
          "order": 8,
          "logoUrl": "../images/logos/jetbrains.png",
          "name": "Jetbrains",
          "url": "https://www.jetbrains.com/"
        }
      ],
      "order": 0,
      "title": "Patrocinadores"
    },
    {
      "logos": [
        {
          "order": 0,
          "logoUrl": "../images/logos/escom-ipn.jpg",
          "name": "DSC ESCOM - IPN",
          "url": "https://dsc.community.dev/national-polytechnic-institute-of-mexico-escom/"
        },
        {
          "order": 1,
          "logoUrl": "../images/logos/xalapacode.png",
          "name": "xalapacode",
          "url": "https://xalapacode.com"
        },
        {
          "order": 2,
          "logoUrl": "../images/logos/scientiax.jpg",
          "name": "Scientiax",
          "url": "https://www.facebook.com/scientiax/"
        },
        {
          "order": 3,
          "logoUrl": "../images/logos/technolatinas.jpg",
          "name": "Technolatinas",
          "url": "https://www.youtube.com/channel/UCtTO36o4kaBlGHJIE09Ztug"
        },
        {
          "order": 4,
          "logoUrl": "../images/logos/wcmex.jpg",
          "name": "WordCamp Mexico",
          "url": "https://mexico.wordcamp.org/2020/"
        },
        {
          "order": 5,
          "logoUrl": "../images/logos/wordpress_cdmx.jpg",
          "name": "Comunidad Wordpress CDMX",
          "url": "https://www.meetup.com/es/WordPress-Mexico/"
        },
        {
          "order": 6,
          "logoUrl": "../images/logos/chilemoletech.jpg",
          "name": "Chile, Mole & Tech",
          "url": "https://anchor.fm/chilemoleytech"
        },
        {
          "order": 7,
          "logoUrl": "../images/logos/phpmexico.jpg",
          "name": "PHP México",
          "url": "https://twitter.com/phpmx"
        },
        {
          "order": 8,
          "logoUrl": "../images/logos/wwc_colima.jpg",
          "name": "Women Who Code Colima",
          "url": "https://www.womenwhocode.com/colima"
        },
        {
          "order": 9,
          "logoUrl": "../images/logos/code_crafters.jpg",
          "name": "Code Crafters",
          "url": "https://www.facebook.com/codecraftersmx"
        },
        {
          "order": 10,
          "logoUrl": "../images/logos/hub_comunidades.png",
          "name": "Hub de Comunidades",
          "url": "https://www.linkedin.com/company/ecosistemanacional/"
        },
        {
          "order": 11,
          "logoUrl": "../images/logos/temachtiani.png",
          "name": "Temachtiani",
          "url": "https://www.temachtiani.com.mx/"
        }
      ],
      "order": 1,
      "title": "Partners"
    },
    {
      "logos": [
        {
          "order": 0,
          "logoUrl": "../images/logos/GDG_Cancun.svg",
          "name": "GDG Cancun",
          "url": "https://gdg.community.dev/gdg-cancun"
        },
        {
          "order": 1,
          "logoUrl": "../images/logos/GDG_Incode.svg",
          "name": "GDG Incode",
          "url": "https://gdg.community.dev/gdg-incode"
        },
        {
          "order": 2,
          "logoUrl": "../images/logos/GDG_Monterrey.svg",
          "name": "GDG Monterrey",
          "url": "https://gdg.community.dev/gdg-monterrey"
        },
        {
          "order": 3,
          "logoUrl": "../images/logos/GDG_Misantla.svg",
          "name": "GDG Misantla",
          "url": "https://gdg.community.dev/gdg-misantla"
        },
        {
          "order": 4,
          "logoUrl": "../images/logos/GDG_Campeche.svg",
          "name": "GDG San Francisco de Campeche",
          "url": "https://gdg.community.dev/gdg-san-francisco-de-campeche/"
        },
        {
          "order": 5,
          "logoUrl": "../images/logos/GDG_Xalapa.svg",
          "name": "GDG Xalapa",
          "url": "https://gdg.community.dev/gdg-xalapa"
        }
      ],
      "order": 2,
      "title": "GDGs organizadores"
    }
  ],
  "schedule": {
    "2020-10-16": {
      "dateReadable": "16 de Octubre",
      "timeslots": [
        {
          "endTime": "16:00",
          "sessions": [
            {
              "items": [101]
            }
          ],
          "startTime": "15:20"
        },
        {
          "endTime": "16:40",
          "sessions": [
            {
              "items": [102]
            }
          ],
          "startTime": "16:00"
        },
        {
          "endTime": "17:20",
          "sessions": [
            {
              "items": [131]
            }
          ],
          "startTime": "16:40"
        },
        {
          "endTime": "18:00",
          "sessions": [
            {
              "items": [103]
            }
          ],
          "startTime": "17:20"
        },
        {
          "endTime": "18:40",
          "sessions": [
            {
              "items": [122]
            }
          ],
          "startTime": "18:00"
        },
        {
          "endTime": "19:20",
          "sessions": [
            {
              "items": [104]
            }
          ],
          "startTime": "18:40"
        },
        {
          "endTime": "20:00",
          "sessions": [
            {
              "items": [105]
            }
          ],
          "startTime": "19:20"
        },
        {
          "endTime": "20:40",
          "sessions": [
            {
              "items": [123]
            }
          ],
          "startTime": "20:00"
        },
        {
          "endTime": "21:20",
          "sessions": [
            {
              "items": [120]
            }
          ],
          "startTime": "20:40"
        },
        {
          "endTime": "22:00",
          "sessions": [
            {
              "items": [124]
            }
          ],
          "startTime": "21:20"
        }
      ],
      "tracks": [
        {
          "title": "Mobile"
        },
        {
          "title": "Cloud"
        }
      ]
    },
    "2020-10-17": {
      "dateReadable": "17 de Octubre",
      "timeslots": [
        {
          "endTime": "10:40",
          "sessions": [
            {
              "items": [130]
            }
          ],
          "startTime": "10:00"
        },
        {
          "endTime": "11:20",
          "sessions": [
            {
              "items": [106]
            }
          ],
          "startTime": "10:40"
        },
        {
          "endTime": "12:00",
          "sessions": [
            {
              "items": [107]
            }
          ],
          "startTime": "11:20"
        },
        {
          "endTime": "12:40",
          "sessions": [
            {
              "items": [108]
            }
          ],
          "startTime": "12:00"
        },
        {
          "endTime": "13:20",
          "sessions": [
            {
              "items": [109]
            }
          ],
          "startTime": "12:40"
        },
        {
          "endTime": "14:00",
          "sessions": [
            {
              "items": [110]
            }
          ],
          "startTime": "13:20"
        },
        {
          "endTime": "14:40",
          "sessions": [
            {
              "items": [125]
            }
          ],
          "startTime": "14:00"
        },
        {
          "endTime": "15:20",
          "sessions": [
            {
              "items": [121]
            }
          ],
          "startTime": "14:40"
        },
        {
          "endTime": "16:00",
          "sessions": [
            {
              "items": [111]
            }
          ],
          "startTime": "15:20"
        },
        {
          "endTime": "16:40",
          "sessions": [
            {
              "items": [126]
            }
          ],
          "startTime": "16:00"
        },
        {
          "endTime": "17:20",
          "sessions": [
            {
              "items": [112]
            }
          ],
          "startTime": "16:40"
        }
      ],
      "tracks": [
        {
          "title": "Web"
        },
        {
          "title": "Machine Learning"
        }
      ]
    },
    "2020-10-18": {
      "dateReadable": "18 de Octubre",
      "timeslots": [
        {
          "endTime": "10:40",
          "sessions": [
            {
              "items": [113]
            }
          ],
          "startTime": "10:00"
        },
        {
          "endTime": "11:20",
          "sessions": [
            {
              "items": [114]
            }
          ],
          "startTime": "10:40"
        },
        {
          "endTime": "12:00",
          "sessions": [
            {
              "items": [127]
            }
          ],
          "startTime": "11:20"
        },
        {
          "endTime": "12:40",
          "sessions": [
            {
              "items": [115]
            }
          ],
          "startTime": "12:00"
        },
        {
          "endTime": "13:20",
          "sessions": [
            {
              "items": [116]
            }
          ],
          "startTime": "12:40"
        },
        {
          "endTime": "14:00",
          "sessions": [
            {
              "items": [117]
            }
          ],
          "startTime": "13:20"
        },
        {
          "endTime": "14:40",
          "sessions": [
            {
              "items": [128]
            }
          ],
          "startTime": "14:00"
        },
        {
          "endTime": "15:20",
          "sessions": [
            {
              "items": [129]
            }
          ],
          "startTime": "14:40"
        },
        {
          "endTime": "16:00",
          "sessions": [
            {
              "items": [118]
            }
          ],
          "startTime": "15:20"
        },
        {
          "endTime": "16:40",
          "sessions": [
            {
              "items": [119]
            }
          ],
          "startTime": "16:00"
        }
      ],
      "tracks": [
        {
          "title": "Open Track"
        }
      ]
    }
  },
  "sessions": {
    "101": {
      "complexity": "Intermedio",
      "description": "Hilt es la nueva librería de inyección de dependencias para Android escrita por Google y en esta charla te mostraré cómo usarla. Hablaremos sobre los principales conceptos de inyección de dependencias, por qué la necesitas y haremos un live code para que veas cómo comenzar a aplicarla a tus proyectos.",
      "language": "Español",
      "speakers": ["antonio_leiva"],
      "tags": ["Android"],
      "title": "Hilt: la inyección de dependencias en Android nunca fue tan fácil"
    },
    "102": {
      "complexity": "Intermedio",
      "description": "Monitorear el rendimiento desde el punto de vista del usuario final, tanto el rendimiento del código de la aplicación como la capacidad de respuesta / confiabilidad de la red, es un desafío para la creación de excelentes experiencias de usuario en las aplicaciones móviles. Durante esta charla estaré platicando de algunos tips, tools y frameworks que puedes utilizar de firebase.",
      "language": "Español",
      "speakers": ["ana_cecilia"],
      "tags": ["Firebase"],
      "title": "App Performance: llevando tu app al siguiente nivel con firebase."
    },
    "103": {
      "complexity": "Principiante",
      "description": "Cuando desarrollamos aplicaciones en android es importante conocer las diferentes maneras en las que nosotros podemos manejar datos. En la plática veremos los diferentes tipo y su funcionalidad. ",
      "language": "Español",
      "speakers": ["marines_mendez"],
      "tags": ["Cloud"],
      "title": "Generar ingresos con el desarrollo móvil."
    },
    "104": {
      "complexity": "Intermedio",
      "description": "Veremos cómo y cuáles son las mejores formas de desplegar aplicaciones en AWS.",
      "language": "Español",
      "speakers": ["josue_hernandez"],
      "tags": ["Cloud"],
      "title": "Desplegando apps en AWS."
    },
    "105": {
      "complexity": "Intermediate",
      "description": "¿Qué es lo que Azure me ofrece a mí como desarrollador? ¿Cómo puedo utilizar sus servicios? Conoce qué es la nube de Azure y más sobre IaaS (Infrastructure as a Service)",
      "language": "Español",
      "speakers": ["graciela_garcia"],
      "tags": ["Cloud"],
      "title": "Cloud Computing Services en Azure"
    },
    "106": {
      "complexity": "Intermedio",
      "description": "En esta plática hablaremos de los nuevos features de Vue 3, explorando sus alcances y casos de uso así como algunos ejemplos.",
      "language": "Español",
      "speakers": ["noemi_leon"],
      "tags": ["Web", "Vue"],
      "title": "Explorando los nuevos features de Vue 3."
    },
    "107": {
      "complexity": "Intermedio",
      "description": "Un recorrido por las últimas y futuras características de Angular como plataforma así como buenas prácticas que vienen con estas.",
      "language": "Español",
      "speakers": ["mikhail_cruz"],
      "tags": ["Angular"],
      "title": "Angular en 2020."
    },
    "108": {
      "complexity": "Intermedio",
      "description": "Novedades de Web Components. Por qué deberíamos darle una oportunidad al estándar y salir de tu zona de confort, si es que no has salido de los frameworks Javascript. Cómo desarrollar Web Components usando LitElement e integrarlos en aplicaciones frontend existentes con Angular.",
      "language": "Español",
      "speakers": ["miguel_angel"],
      "tags": ["Web"],
      "title": "Migra al estándar, migra a Web Components."
    },
    "109": {
      "complexity": "Intermedio",
      "description": "Los empleos modernos nos piden saber React, Angular o Vue pero pocas veces sabemos qué partes del lenguaje son primordiales para sacarles provecho y entender un poco más estas plataformas, en esta sesión responderemos esa pregunta.",
      "language": "Español",
      "speakers": ["leonidas_esteban"],
      "tags": ["Web"],
      "title": "El JavaScript que necesitas saber antes de cualquier Framework."
    },
    "110": {
      "complexity": "Intermedio",
      "description": "Se hablará acerca de las redes generativas con las que, entre otros. NVIDIA comenzó a generar caras realistas de personas y objetos. Se presentarán también, detalles sobre diferentes arquitecturas como StyleGAN y su evolución. Además, se mostrarán diferentes casos de aplicación de este tipo de redes neuronales.",
      "language": "Español",
      "speakers": ["paula_martinez"],
      "tags": ["Machine Learning"],
      "title": "GANs y deepfakes"
    },
    "111": {
      "complexity": "Principiante",
      "description": "",
      "language": "Español",
      "speakers": ["jorge_ubaldo"],
      "tags": ["Web"],
      "title": "Webs 4.0, la nueva re-evolucion de la web."
    },
    "112": {
      "complexity": "Intermediate",
      "description": "From custom properties, to new media queries and new grid capabilities, CSS is rapidly changing the way we build UI interfaces for the web.\n The future of the web is bright with CSS offering new ways to build adaptive websites with awerenes of the device capabilities.",
      "language": "Español",
      "speakers": ["uriel_hernandez"],
      "tags": ["Web"],
      "title": "Escribir CSS moderno"
    },
    "113": {
      "complexity": "Principiante",
      "description": "¿Existe la Inteligencia Artificial tal y como nos la quieren vender?",
      "language": "Español",
      "speakers": ["luis_berganza"],
      "tags": ["Cloud"],
      "title": "Chatbot y la Inteligencia Artificial"
    },
    "114": {
      "complexity": "Principiante",
      "description": "The ABC of the project's launching.\n Once I have a project to be done, what’s next?\n We will review the tools and some other good practices to follow up on your project from the moment you checked it with the client, assign it to your team and until deployment.",
      "language": "Español",
      "speakers": ["vanessa_ramz"],
      "tags": ["PM"],
      "title": "Your project's journey"
    },
    "115": {
      "complexity": "Principiante",
      "description": "Learnings about collaborating between design, strategy, brand and development teams when implementing digital products and services.",
      "language": "Español",
      "speakers": ["maria_belen"],
      "tags": ["Design"],
      "title": "Collaboration for interdisciplinary projects"
    },
    "116": {
      "complexity": "Intermedio",
      "description": "",
      "language": "Español",
      "speakers": ["matias_blayer"],
      "tags": ["Web"],
      "title": "Primeros pasos con el Explore IoT Kit"
    },
    "117": {
      "complexity": "Principiante",
      "description": "El desarrollo de aplicaciones para Google Assistant ha dado un gran giro con el lanzamiento de su nueva plataforma de desarrollo: Actions Builder; también el lanzamiento de su nuevo Actions SDK nos permite manejar de manera offline la creación de nuestras Actions y posterior despliegue y todo desde su propio CLI",
      "language": "Español",
      "speakers": ["carlo_huaman"],
      "tags": ["Assistant"],
      "title": "Llevando tu Action al siguiente nivel con Actions Builder"
    },
    "118": {
      "complexity": "Principiante",
      "description": "",
      "language": "Español",
      "speakers": ["alix_gallardo"],
      "tags": ["Women in Tech"],
      "title": "Por más mujeres en Tecnología ¿Cómo podemos involucrar a más mujeres en Tecnología?"
    },
    "119": {
      "complexity": "Intermedio",
      "description": "El interés en AI, Machine Learning y Deep Learning es un tema de moda, sin embargo, aún resulta complicado dar los primeros pasos. En esta charla se revisarán conceptos fundamentales, transfer learning y redes neuronales convolucionales, utilizando un ejemplo práctico de un clasificador de imágenes.",
      "language": "Español",
      "speakers": ["adrian_catalan"],
      "tags": ["Machine Learning"],
      "title": "Machine Learning Práctico con TensorFlow y Keras"
    },
    "120": {
      "complexity": "Intermedio",
      "description": "Un recorrido por Google Cloud para integrar servicios de manejo de contenedores (Cloud Run) y servicios para facilitar Continuous Delivery (Cloud Build, Buildpacks y Repositories) de una forma sencilla y bien integrada con tus IDE para aumentar tu ritmo y capacidad de despliegues al tiempo que generas consistencia y mantienes tu capacidad de análisis y supervisión para minimizar riesgos.",
      "language": "Español",
      "speakers": ["antonio_guzman"],
      "tags": ["Cloud"],
      "title": "Continuous Delivery en Cloud Run, la vía sencilla"
    },
    "121": {
      "complexity": "Principiante",
      "description": "Los sistemas de diseño aumentan la velocidad de desarrollo en todos los equipos, además de hacer que sus aplicaciones se vean y se sientan consistentes. En esta charla te contaré toda una introducción acerca de sistemas de diseño en el frontend, como manejar un UI kit en nuestros proyectos, Así como temas y fonts de forma sencilla y mantenible.",
      "language": "Español",
      "speakers": ["paula_sanchez"],
      "tags": ["Web"],
      "title": "Introducción a sistemas de diseño para Frontends"
    },
    "122": {
      "complexity": "Intermedio",
      "description": "Descubre las capacidades de Tensorflow Lite para implementar modelos de ML en dispositivos móviles.",
      "language": "Español",
      "speakers": ["victoria_ubaldo"],
      "tags": ["Machine Learning"],
      "title": "Machine learning for mobile developers"
    },
    "123": {
      "complexity": "Intermedio",
      "description": "",
      "language": "Español",
      "speakers": ["paul_ruiz"],
      "tags": ["Firebase", "Flutter"],
      "title": "Rapid Prototyping with Flutter and Firebase"
    },
    "124": {
      "complexity": "Intermedio",
      "description": "",
      "language": "Español",
      "speakers": ["jose_lujan"],
      "tags": ["Kotlin"],
      "title": "Kotlin Multiplataforma"
    },
    "125": {
      "complexity": "Principiante",
      "description": "Framework CSS nos permite ahorrar mucho tiempo y esfuerzo al implementar y optimizar nuestros proyectos web.",
      "language": "Español",
      "speakers": ["mayra_zurita"],
      "tags": ["Web"],
      "title": "El poder de Materialize"
    },
    "126": {
      "complexity": "Intermedio",
      "description": "",
      "language": "",
      "speakers": ["selene_flores"],
      "tags": ["Web"],
      "title": "De junior a programador-a 10x: Mitos y tips"
    },
    "127": {
      "complexity": "Principiante",
      "description": "Quiero explicar el porqué las mujeres no son parte del sector tecnológico, porque a pesar de estar en pleno 2020 sigue habiendo este estrago. ¿Que lo causa? ¿Como podemos ayudar a que más niñas puedan ver esta, como una carrera para ella en un futuro ? Dar un punto de vista como una estudiante de ingeniería de que se puede hacer para atraer esta carrera a futuras generaciones de  ingenieras.",
      "language": "Español",
      "speakers": ["alejandra_cristine"],
      "tags": ["Motivacional"],
      "title": "¿Porque en el sector tecnológico hay muy pocas mujeres?"
    },
    "128": {
      "complexity": "Principiante",
      "description": "Veremos de qué se trata la computación cuántica, que aunque no es un concepto nuevo es uno de los desarrollos más desafiantes que se ha propuesto la humanidad. ",
      "language": "Español",
      "speakers": ["valeria_alejandra"],
      "tags": ["Quantum Computing"],
      "title": "Computación cuántica. Introducción a este concepto del futuro."
    },
    "129": {
      "complexity": "Intermedio",
      "description": "En esta ocasión platicaremos sobre crear tu propio tema desde cero, las ventajas en el mundo del freelance y las posibilidades de escalar tu sitio a lo que te puedas imaginar.",
      "language": "Español",
      "speakers": ["dafne_delgado"],
      "tags": ["Web"],
      "title": "Creando mi sitio a la medida"
    },
    "130": {
      "complexity": "Intermedio",
      "description": "",
      "language": "",
      "speakers": ["jessie_chavez"],
      "tags": ["General"],
      "title": "Data Transfer Project - An Open Source Initiative Enabling Data Portability"
    },
    "131": {
      "complexity": "Intermedio",
      "description": "",
      "language": "",
      "speakers": ["milena_barragan"],
      "tags": ["Google Cloud"],
      "title": "Demythifying Cloud for developers"
    }
  },
  "speakers": {
    "antonio_leiva": {
      "badges": [
        {
          "description": "Google Developer Expert en Kotlin",
          "link": "https://developers.google.com/community/experts/directory/profile/profile-antonio_leiva",
          "name": "gde"
        }
      ],
      "bio": "Google Developer Expert en Kotlin y Partner de Formación de JetBrains. Escritor del libro Kotlin for Android Developers",
      "company": "",
      "companyLogo": "",
      "companyLogoUrl": "",
      "country": "España",
      "featured": true,
      "name": "Antonio Leiva Gordillo",
      "photo": "/images/people/antonio_leiva.jpg",
      "photoUrl": "https://devfestmexico.com/images/people/antonio_leiva.jpg",
      "pronouns": "",
      "shortBio": "",
      "socials": [{
        "icon": "twitter",
        "link": "https://twitter.com/devexperto1",
        "name": "Twitter"
      }],
      "order": 0,
      "title": ""
    },
    "ana_cecilia": {
      "bio": "Ingeniera en Sistemas, desarrolladora de software ha desarrollado aplicaciones móviles por más de 8 años tanto para android como iOS actualmente trabaja desarrollando iOS en Xoom a PayPal Service. Co-Organizadora del GDG Guatemala, Embajadora de Women Techmakers. Runner, Speaker y me encanta leer.",
      "company": "",
      "companyLogo": "",
      "companyLogoUrl": "",
      "country": "Guatemala",
      "featured": true,
      "name": "Ana Cecilia Castillo",
      "photo": "/images/people/ana_cecilia.jpg",
      "photoUrl": "https://devfestmexico.com/images/people/ana_cecilia.jpg",
      "pronouns": "",
      "shortBio": "",
      "socials": [{
        "icon": "twitter",
        "link": "https://twitter.com/zezzi",
        "name": "Twitter"
      }],
      "order": 1,
      "title": ""
    },
    "marines_mendez": {
      "bio": "Ingeniera en Sistemas, desarrolladora de software ha desarrollado aplicaciones móviles por más de 8 años tanto para android como iOS actualmente trabaja desarrollando iOS en Xoom a PayPal Service. Co-Organizadora del GDG Guatemala, Embajadora de Women Techmakers. Runner, Speaker y me encanta leer.",
      "company": "",
      "companyLogo": "",
      "companyLogoUrl": "",
      "country": "México",
      "featured": false,
      "name": "Marines Méndez Gallegos",
      "photo": "/images/people/marines_mendez.jpg",
      "photoUrl": "https://devfestmexico.com/images/people/marines_mendez.jpg",
      "pronouns": "",
      "shortBio": "",
      "socials": [{
        "icon": "twitter",
        "link": "https://twitter.com/@marines0210",
        "name": "Twitter"
      }],
      "order": 2,
      "title": ""
    },
    "josue_hernandez": {
      "bio": "",
      "company": "",
      "companyLogo": "",
      "companyLogoUrl": "",
      "country": "México",
      "featured": false,
      "name": "Josué Hernández Ramírez",
      "photo": "/images/people/josue_hernandez.jpg",
      "photoUrl": "https://devfestmexico.com/images/people/josue_hernandez.jpg",
      "pronouns": "",
      "shortBio": "",
      "socials": [{
        "icon": "twitter",
        "link": "https://twitter.com/josuehr_",
        "name": "Twitter"
      }],
      "order": 3,
      "title": "Developer Lead "
    },
    "graciela_garcia": {
      "bio": "Software Engineer at Microsoft & Creative Partner at Twitch",
      "company": "",
      "companyLogo": "",
      "companyLogoUrl": "",
      "country": "Estados Unidos",
      "featured": true,
      "name": "Graciela Garcia",
      "photo": "/images/people/graciela_garcia.jpg",
      "photoUrl": "https://devfestmexico.com/images/people/graciela_garcia.jpg",
      "pronouns": "",
      "shortBio": "",
      "socials": [{
        "icon": "twitter",
        "link": "https://twitter.com/gracegdays",
        "name": "Twitter"
      }],
      "order": 4,
      "title": ""
    },
    "noemi_leon": {
      "bio": "A full stack Software Developer passionate about frontend development with more than 7 years experience. She loves to share knowledge and learn more every day. She is a Women TechMakers Ambassador and GDG Cancun Co-organizer and teaches software development at presential courses and online platforms.",
      "company": "",
      "companyLogo": "",
      "companyLogoUrl": "",
      "country": "México",
      "featured": false,
      "name": "Noemi Leon",
      "photo": "/images/people/noemi_leon.jpg",
      "photoUrl": "https://devfestmexico.com/images/people/noemi_leon.jpg",
      "pronouns": "",
      "shortBio": "",
      "socials": [{
        "icon": "twitter",
        "link": "https://twitter.com/noeleo25",
        "name": "Twitter"
      }],
      "order": 5,
      "title": ""
    },
    "mikhail_cruz": {
      "bio": "Web Developer que le encanta hacer webs, comunidades y organizar eventos",
      "company": "",
      "companyLogo": "",
      "companyLogoUrl": "",
      "country": "México",
      "featured": false,
      "name": "Mikhail Cruz Andrade",
      "photo": "/images/people/mikhail_cruz.jpg",
      "photoUrl": "https://devfestmexico.com/images/people/mikhail_cruz.jpg",
      "pronouns": "",
      "shortBio": "",
      "socials": [{
        "icon": "twitter",
        "link": "https://twitter.com/jailandrade",
        "name": "Twitter"
      }],
      "order": 6,
      "title": ""
    },
    "miguel_angel": {
      "bio": "Fundador de DesarrolloWeb.com y cofundador de EscuelaIT. Disfruto desarrollando y enseñando tecnologías web desde hace más de 20 años. Hoy mis especialidades son Javascript, Web Components, Laravel y NodeJS.",
      "company": "",
      "companyLogo": "",
      "companyLogoUrl": "",
      "country": "España",
      "featured": false,
      "name": "Miguel Angel Alvarez",
      "photo": "/images/people/miguel_angel.jpg",
      "photoUrl": "https://devfestmexico.com/images/people/miguel_angel.jpg",
      "pronouns": "",
      "shortBio": "",
      "socials": [{
        "icon": "twitter",
        "link": "https://twitter.com/midesweb",
        "name": "Twitter"
      }],
      "order": 7,
      "title": ""
    },
    "leonidas_esteban": {
      "badges": [
        {
          "description": "Google Developer Expert en Tecnologias Web",
          "link": "https://developers.google.com/community/experts/directory/profile/profile-leonidas_eduardo_esteban_gonzalez",
          "name": "gde"
        }
      ],
      "bio": "Mentor y Google Developer Expert en Tecnologias Web",
      "company": "",
      "companyLogo": "",
      "companyLogoUrl": "",
      "country": "México",
      "featured": true,
      "name": "Leonidas Esteban",
      "photo": "/images/people/leonidas_esteban.jpg",
      "photoUrl": "https://devfestmexico.com/images/people/leonidas_esteban.jpg",
      "pronouns": "",
      "shortBio": "",
      "socials": [{
        "icon": "twitter",
        "link": "https://twitter.com/LeonidasEsteban",
        "name": "Twitter"
      }],
      "order": 8,
      "title": ""
    },
    "paula_martinez": {
      "badges": [
        {
          "description": "Google Developer Expert en Machine Learning",
          "link": "https://developers.google.com/community/experts/directory/profile/profile-paula_martinez",
          "name": "gde"
        }
      ],
      "bio": "Paula Martínez es cofundadora de Marvik, una startup dedicada al desarrollo de machine learning. Google Developer Expert en Machine Learning. Es ingeniera eléctrica y tiene un Master en Gerencia de empresas Tecnológicas. Además, completó el executive program del MIT, Artificial Intelligence: Implications for Business Strategy y participó del Full Stack Deep Learning Bootcamp realizado en Berkeley, CA.",
      "company": "",
      "companyLogo": "",
      "companyLogoUrl": "",
      "country": "Uruguay",
      "featured": true,
      "name": "Paula Martinez",
      "photo": "/images/people/paula_martinez.jpeg",
      "photoUrl": "https://devfestmexico.com/images/people/paula_martinez.jpeg",
      "pronouns": "",
      "shortBio": "",
      "socials": [{
        "icon": "twitter",
        "link": "https://twitter.com/pau_martinez",
        "name": "Twitter"
      }],
      "order": 9,
      "title": ""
    },
    "jorge_ubaldo": {
      "badges": [
        {
          "description": "Google Developer Expert en Angular y Tecnologias Web",
          "link": "https://developers.google.com/community/experts/directory/profile/profile-jorge_cano",
          "name": "gde"
        }
      ],
      "bio": "Después de más de 10 años trabajando en la industria de la tecnología, Jorge es un full stack developer con enfoque en tecnologías de JavaScript. Hoy está trabajando en HeroDevs como Arquitecto principal, enfocado en Scully al 100% de su dia. Entregó varios cursos y charlas, y también escribe artículos técnicos sobre estos temas. Debido a eso, fue reconocido como un Google Developer Expert en Angular y tecnologías Web, como así telerik le otorgó el Nativescript Developer Expert.",
      "company": "",
      "companyLogo": "",
      "companyLogoUrl": "",
      "country": "Argentina",
      "featured": true,
      "name": "Jorge Ubaldo Cano",
      "photo": "/images/people/jorge_ubaldo.jpg",
      "photoUrl": "https://devfestmexico.com/images/people/jorge_ubaldo.jpg",
      "pronouns": "",
      "shortBio": "",
      "socials": [{
        "icon": "twitter",
        "link": "https://twitter.com/jorgeucano",
        "name": "Twitter"
      }],
      "order": 10,
      "title": ""
    },
    "uriel_hernandez": {
      "bio": "Soy Desarollador Web con 10 años de experiencia y cofundador de CódigoFacilito. Por más de 10 años he trabajado en desarrollo web, en la parte del Frontend y el backend, he impartido cursos avanzados de Ruby, JavaScript y Frontend en general.",
      "company": "",
      "companyLogo": "",
      "companyLogoUrl": "",
      "country": "México",
      "featured": false,
      "name": "Marcos Uriel Hernández Camacho",
      "photo": "/images/people/uriel_hernandez.jpg",
      "photoUrl": "https://devfestmexico.com/images/people/uriel_hernandez.jpg",
      "pronouns": "",
      "shortBio": "",
      "socials": [{
        "icon": "twitter",
        "link": "https://twitter.com/uriel_hedz",
        "name": "Twitter"
      }],
      "order": 11,
      "title": ""
    },
    "luis_berganza": {
      "bio": "",
      "company": "",
      "companyLogo": "",
      "companyLogoUrl": "",
      "country": "España",
      "featured": false,
      "name": "Luis Berganza",
      "photo": "/images/people/luis_berganza.jpg",
      "photoUrl": "https://devfestmexico.com/images/people/luis_berganza.jpg",
      "pronouns": "",
      "shortBio": "",
      "socials": [{
        "icon": "twitter",
        "link": "@LLBerganza",
        "name": "Twitter"
      }],
      "order": 12,
      "title": ""
    },
    "vanessa_ramz": {
      "bio": "Experienced Project And Process Manager with a demonstrated history of working in the computer software industry. Co-founder at 4 Plus 1 Creative. She's the organizer of GDG InCode.",
      "company": "",
      "companyLogo": "",
      "companyLogoUrl": "",
      "country": "México",
      "featured": false,
      "name": "Vanessa Ramz",
      "photo": "/images/people/vanessa_ramz.jpg",
      "photoUrl": "https://devfestmexico.com/images/people/vanessa_ramz.jpg",
      "pronouns": "",
      "shortBio": "",
      "socials": [{
        "icon": "twitter",
        "link": "https://twitter.com/vanessa9ramz",
        "name": "Twitter"
      }],
      "order": 13,
      "title": ""
    },
    "maria_belen": {
      "bio": "Wroking in the fields of UX and User Research for the last 6 years, with different tech companies in Latin America and Silicon Valley.",
      "company": "",
      "companyLogo": "",
      "companyLogoUrl": "",
      "country": "México",
      "featured": false,
      "name": "Maria Belén Ceballos",
      "photo": "/images/people/maria_belen.jpg",
      "photoUrl": "https://devfestmexico.com/images/people/maria_belen.jpg",
      "pronouns": "",
      "shortBio": "",
      "socials": [{
        "icon": "twitter",
        "link": "https://twitter.com/benjibel",
        "name": "Twitter"
      }],
      "order": 14,
      "title": ""
    },
    "matias_blayer": {
      "badges": [
        {
          "description": "Google Developer Expert en Tecnologias Web",
          "link": "https://developers.google.com/community/experts/directory/profile/profile-matias_blayer",
          "name": "gde"
        }
      ],
      "bio": "Matías es un desarrollador con muchos años de experiencia en javascript. Hoy en día trabaja como frontend developer y Community Advocate en stensul generando espacios para la difusión de nuevas tecnologías, promoviendo y guiando a los desarrolladores para dar charlas sobre las tecnologías utilizadas en la empresa. También se desempeña como co-organizador de @vuenos_aires y Google Developer Expert en tecnologías web. Un apasionado por la fotografía y la robótica. Durante estos últimos años se dedicó a organizar eventos y espacios para la comunidad de desarrolladores brindando la posibilidad de acceso a las nuevas tecnologías de punta.",
      "company": "",
      "companyLogo": "",
      "companyLogoUrl": "",
      "country": "Argentina",
      "featured": false,
      "name": "Matias Andres Blayer",
      "photo": "/images/people/matias_blayer.jpg",
      "photoUrl": "https://devfestmexico.com/images/people/matias_blayer.jpg",
      "pronouns": "",
      "shortBio": "",
      "socials": [{
        "icon": "twitter",
        "link": "https://twitter.com/m_blayer",
        "name": "Twitter"
      }],
      "order": 15,
      "title": ""
    },
    "carlo_huaman": {
      "badges": [
        {
          "description": "Google Developer Expert en Assistant",
          "link": "https://developers.google.com/community/experts/directory/profile/profile-carlo_renzo_huam_C3_A1n_torres",
          "name": "gde"
        }
      ],
      "bio": "",
      "company": "",
      "companyLogo": "",
      "companyLogoUrl": "",
      "country": "Peru",
      "featured": true,
      "name": "Carlo Huamán",
      "photo": "/images/people/carlo_huaman.jpg",
      "photoUrl": "https://devfestmexico.com/images/people/carlo_huaman.jpg",
      "pronouns": "",
      "shortBio": "",
      "socials": [{
        "icon": "twitter",
        "link": "https://twitter.com/Tohure_",
        "name": "Twitter"
      }],
      "order": 16,
      "title": "Mobile Architect"
    },
    "alix_gallardo": {
      "bio": "Product Manager ♡ #UX #TechnoLatinas - A veces juego PUBG, DBD y GTA. Construyendo http://UNPlayer.com Cara de unicornio #FoodieTraveler Sushi Empoderando a otras mujeres",
      "company": "",
      "companyLogo": "",
      "companyLogoUrl": "",
      "country": "México",
      "featured": true,
      "name": "Alix Gallardo",
      "photo": "/images/people/alix_gallardo.jpg",
      "photoUrl": "https://devfestmexico.com/images/people/alix_gallardo.jpg",
      "pronouns": "",
      "shortBio": "",
      "socials": [{
        "icon": "twitter",
        "link": "https://twitter.com/agnamihira",
        "name": "Twitter"
      }],
      "order": 17,
      "title": ""
    },
    "adrian_catalan": {
      "badges": [
        {
          "description": "Google Developer Expert en Android",
          "link": "https://developers.google.com/community/experts/directory/profile/profile-adrian_catalan",
          "name": "gde"
        }
      ],
      "bio": "Adrián has been involved in software industry for 15+ years as a full stack and mobile developer. GDG Cloud Guatemala organizer, and GDG, Facebook DevC, GuatemalaJS and Nodebots former co-organizer. Launchpad Mentor, Sprint Master and Google Developer Expert for Android, IoT and Firebase. Currently he is the Director of he Innovation Lab at Galileo University.",
      "company": "",
      "companyLogo": "",
      "companyLogoUrl": "",
      "country": "Guatemala",
      "featured": true,
      "name": "Adrian Catalan",
      "photo": "/images/people/adrian_catalan.jpg",
      "photoUrl": "https://devfestmexico.com/images/people/adrian_catalan.jpg",
      "pronouns": "",
      "shortBio": "",
      "socials": [{
        "icon": "twitter",
        "link": "https://twitter.com/ykro",
        "name": "Twitter"
      }],
      "order": 18,
      "title": ""
    },
    "paula_sanchez" : {
      "bio": "Desarrolladora Frontend, amante de CSS, Javascript y React librería con la que trabajo a diario,  Desarrolladora Frontend en Runa hr colaboró con comunidades como GDG cloud MX o Women Techmakers en donde mejoro mis skills como developer y comparto todo lo aprendo, entreno karate y disfruto ver peliculas con mi gata perezosa La Tata",
      "company": "",
      "companyLogo": "",
      "companyLogoUrl": "",
      "country": "México",
      "featured": false,
      "name": "Paula Johana Sanchez",
      "photo": "/images/people/paula_sanchez.jpg",
      "photoUrl": "https://devfestmexico.com/images/people/paula_sanchez.jpg",
      "pronouns": "",
      "shortBio": "",
      "socials": [{
        "icon": "twitter",
        "link": "https://twitter.com/paulasaguz",
        "name": "Twitter"
      }],
      "order": 19,
      "title": ""
    },
    "antonio_guzman" : {
      "badges": [
        {
          "description": "Google Developer Expert en Google Cloud Platform y G Suite",
          "link": "https://developers.google.com/community/experts/directory/profile/profile-antonio_guzm_C3_A1n_fern_C3_A1ndez",
          "name": "gde"
        }
      ],
      "bio": "",
      "company": "",
      "companyLogo": "",
      "companyLogoUrl": "",
      "country": "México",
      "featured": false,
      "name": "Antonio Guzman",
      "photo": "/images/people/antonio_guzman.jpg",
      "photoUrl": "https://devfestmexico.com/images/people/antonio_guzman.jpg",
      "pronouns": "",
      "shortBio": "",
      "socials": [{
        "icon": "twitter",
        "link": "https://twitter.com/tonioguzmanf",
        "name": "Twitter"
      }],
      "order": 20,
      "title": ""
    },
    "victoria_ubaldo": {
      "bio": "Software Engineer, Data Analyst en Interbank. Women Techmakers Ambassador y Co-organizadora de GDG Cloud Lima. Pasión por compartir conocimiento y crear aplicaciones centradas en las personas a partir de los datos.",
      "company": "",
      "companyLogo": "",
      "companyLogoUrl": "",
      "country": "Peru",
      "featured": false,
      "name": "Victoria Ubaldo",
      "photo": "/images/people/victoria_ubaldo.jpg",
      "photoUrl": "https://devfestmexico.com/images/people/victoria_ubaldo.jpg",
      "pronouns": "",
      "shortBio": "",
      "socials": [{
        "icon": "twitter",
        "link": "https://twitter.com/vikyale",
        "name": "Twitter"
      }],
      "order": 21,
      "title": ""
    },
    "paul_ruiz": {
      "bio": "Experienced Software Engineer with a demonstrated history of working in the computer software industry. Skilled in mobile development, IoT, television, and emerging technologies. ",
      "company": "",
      "companyLogo": "",
      "companyLogoUrl": "",
      "country": "Estados Unidos",
      "featured": false,
      "name": "Paul Ruiz",
      "photo": "/images/people/paul_ruiz.jpg",
      "photoUrl": "https://devfestmexico.com/images/people/paul_ruiz.jpg",
      "pronouns": "",
      "shortBio": "",
      "socials": [{
        "icon": "twitter",
        "link": "https://twitter.com/TK14863",
        "name": "Twitter"
      }],
      "order": 22,
      "title": ""
    },
    "jose_lujan": {
      "bio": "I'm Developer, teacher and writer. I am a developer with experience in Web and Mobile and teacher for 12 years in universities at Masters and Bachelor. I am a Teacher on Lynda.com/Video2Brain.com/Linkedin and CodigoFacilito, EscuelaIT.",
      "company": "",
      "companyLogo": "",
      "companyLogoUrl": "",
      "country": "México",
      "featured": false,
      "name": "José Luján",
      "photo": "/images/people/jose_lujan.png",
      "photoUrl": "https://devfestmexico.com/images/people/jose_lujan.png",
      "pronouns": "",
      "shortBio": "",
      "socials": [{
        "icon": "twitter",
        "link": "https://twitter.com/josedlujan",
        "name": "Twitter"
      }],
      "order": 23,
      "title": ""
    },
    "jessie_chavez": {
      "bio": "Tech Lead for https://datatransferproject.dev",
      "company": "",
      "companyLogo": "",
      "companyLogoUrl": "",
      "country": "Estados Unidos",
      "featured": false,
      "name": "Jessie 'Chuy' Chavez",
      "photo": "/images/people/jessie_chavez.jpg",
      "photoUrl": "https://devfestmexico.com/images/people/jessie_chavez.jpg",
      "pronouns": "",
      "shortBio": "",
      "socials": [{
        "icon": "linkedin",
        "link": "https://www.linkedin.com/in/jessie-chuy-chavez-903361111/",
        "name": "LinkedIn"
      }],
      "order": 24,
      "title": ""
    },
    "mayra_zurita": {
      "bio": "Jedi en Frontend developer y padawan en UX y UI. Colaboradora de Codeando Villahermosa y co organizadora del CodeCamp en Villahermosa. Mentora en Startup Weekend 2018, Hackathon Coatza 2019, Hackathon Hidalgo 2019. Community Lead de Hack Tabasco",
      "company": "",
      "companyLogo": "",
      "companyLogoUrl": "",
      "country": "México",
      "featured": false,
      "name": "Mayra Zurita",
      "photo": "/images/people/mayra_zurita.jpg",
      "photoUrl": "https://devfestmexico.com/images/people/mayra_zurita.jpg",
      "pronouns": "",
      "shortBio": "",
      "socials": [{
        "icon": "twitter",
        "link": "https://twitter.com/mizrmx",
        "name": "Twitter"
      }],
      "order": 25,
      "title": ""
    },
    "selene_flores": {
      "bio": "",
      "company": "",
      "companyLogo": "",
      "companyLogoUrl": "",
      "country": "México",
      "featured": false,
      "name": "Selene Flores",
      "photo": "/images/people/selene_flores.jpg",
      "photoUrl": "https://devfestmexico.com/images/people/selene_flores.jpg",
      "pronouns": "",
      "shortBio": "",
      "socials": [],
      "order": 26,
      "title": ""
    },
    "alejandra_cristine": {
      "bio": "Estudiante de la carrera ingeniería en datos e inteligencia organizacional en la universidad del caribe, tengo 22 años, me gusta aprender sobre temas de las tecnologías actuales, toco el violín y me gusta jugar ajedrez.",
      "company": "",
      "companyLogo": "",
      "companyLogoUrl": "",
      "country": "México",
      "featured": false,
      "name": "Alejandra Cristine Reyes ",
      "photo": "/images/people/.jpg",
      "photoUrl": "https://devfestmexico.com/images/people/.jpg",
      "pronouns": "",
      "shortBio": "",
      "socials": [{
        "icon": "twitter",
        "link": "https://twitter.com/",
        "name": "Twitter"
      }],
      "order": 27,
      "title": ""
    },
    "valeria_alejandra": {
      "bio": "Soy estudiante de Ingeniería en Tecnologías de la Información y Comunicación. Desarrollo principalmente para web. Me encanta estar al tanto de las tendencias tecnológicas y de los proyectos que pretenden mejorar la calidad de vida de las personas. Soy nueva en las comunidades, pero amo hablar en los eventos, compartiendo las cosas nuevas que aprendo. ",
      "company": "",
      "companyLogo": "",
      "companyLogoUrl": "",
      "country": "México",
      "featured": false,
      "name": "Valeria Alejandra Roman De Dios",
      "photo": "/images/people/valeria_alejandra.jpg",
      "photoUrl": "https://devfestmexico.com/images/people/valeria_alejandra.jpg",
      "pronouns": "",
      "shortBio": "",
      "socials": [{
        "icon": "twitter",
        "link": "https://twitter.com/AleDev_Code",
        "name": "Twitter"
      }],
      "order": 28,
      "title": ""
    },
    "dafne_delgado": {
      "bio": "Cofundadora de la comunidad de WordPress CDMX. Diseñadora Interactiva, especializada en Front End, gusto por el SEO y blogging desde hace más de 9 años. Actualmente trabajo como SEO Analyst en Clean Ranks, consultora de bloggers, y web developer. Recién terminé mi maestría en Digital Media.",
      "company": "",
      "companyLogo": "",
      "companyLogoUrl": "",
      "country": "Canadá",
      "featured": false,
      "name": "Dafne Delgado Muzquiz",
      "photo": "/images/people/dafne_delgado.jpg",
      "photoUrl": "https://devfestmexico.com/images/people/dafne_delgado.jpg",
      "pronouns": "",
      "shortBio": "",
      "socials": [{
        "icon": "twitter",
        "link": "https://twitter.com/daffinc",
        "name": "Twitter"
      }],
      "order": 29,
      "title": ""
    },
    "milena_barragan": {
      "bio": "",
      "company": "",
      "companyLogo": "",
      "companyLogoUrl": "",
      "country": "México",
      "featured": false,
      "name": "Ana Milena Barragán Charry",
      "photo": "",
      "photoUrl": "",
      "pronouns": "",
      "shortBio": "",
      "socials": [],
      "order": 30,
      "title": ""
    }

  },
  "team": [
    {
      "members": [
        {
          "name": "José Luján",
          "photo": "/images/people/jose_lujan.png",
          "photoUrl": "https://devfestmexico.com/images/people/jose_lujan.png",
          "socials": [
            {
              "icon": "twitter",
              "link": "https://twitter.com/josedlujan",
              "name": "Twitter"
            }
          ],
          "order": 0,
          "title": ""
        },
        {
          "name": "Vanessa Ramz",
          "photo": "/images/people/vanessa_ramz.jpg",
          "photoUrl": "https://devfestmexico.com/images/people/vanessa_ramz.jpg",
          "socials": [{
            "icon": "twitter",
            "link": "https://twitter.com/vanessa9ramz",
            "name": "Twitter"
          }],
          "order": 1,
          "title": ""
        },
        {
          "name": "Noemi Leon",
          "photo": "/images/people/noemi_leon.jpg",
          "photoUrl": "https://devfestmexico.com/images/people/noemi_leon.jpg",
          "socials": [{
            "icon": "twitter",
            "link": "https://twitter.com/noeleo25",
            "name": "Twitter"
          }],
          "order": 2,
          "title": ""
        },
        {
          "name": "Edgar Marco Polo Galvan",
          "photo": "/images/people/edgar_galvan.jpeg",
          "photoUrl": "https://devfestmexico.com/images/people/edgar_galvan.jpeg",
          "socials": [{
            "icon": "twitter",
            "link": "https://twitter.com/edgarmarcopolo",
            "name": "Twitter"
          }],
          "order": 3,
          "title": ""
        },
        {
          "name": "Irahan Jose G.",
          "photo": "/images/people/irahan_jose.jpg",
          "photoUrl": "https://devfestmexico.com/images/people/irahan_jose.jpg",
          "socials": [{
            "icon": "twitter",
            "link": "https://twitter.com/irahan_",
            "name": "Twitter"
          }],
          "order": 4,
          "title": ""
        },
        {
          "name": "Rene Sandoval",
          "photo": "/images/people/rene_sandoval.jpg",
          "photoUrl": "https://devfestmexico.com/images/people/rene_sandoval.jpg",
          "socials": [{
            "icon": "twitter",
            "link": "https://twitter.com/resand91",
            "name": "Twitter"
          }],
          "order": 5,
          "title": ""
        },
        {
          "name": "Mikhail Cruz Andrade",
          "photo": "/images/people/mikhail_cruz.jpg",
          "photoUrl": "https://devfestmexico.com/images/people/mikhail_cruz.jpg",
          "socials": [{
            "icon": "twitter",
            "link": "https://twitter.com/jailandrade",
            "name": "Twitter"
          }],
          "order": 6,
          "title": ""
        }
      ],
      "title": "Equipo Organizador"
    }
  ],
  "tickets": [
    {
      "available": true,
      "currency": "$",
      "ends": "Oct 13",
      "info": "Requires valid student/lecturer ID",
      "name": "EDU",
      "price": 80,
      "soldOut": false,
      "starts": "Feb 7",
      "url": "https://2event.com/events/1027108"
    }
  ],
  "triggers": {
    "images": false
  },
  "videos": [
    {
      "speakers": "Yonatan Levin",
      "thumbnail": "https://firebasestorage.googleapis.com/v0/b/hoverboard-firebase.appspot.com/o/images%2Fsessions%2F2017%2FGDG-(65).jpg?alt=media&token=f25f04cf-9a10-42ed-b2ff-e41fad910c39",
      "title": "Making mistakes and building products from 1st to 30M users",
      "youtubeId": "hUY8jg9-ieE"
    }
  ],
  "previousSpeakers": {
  }
}
